%YAML 1.1
%TAG !u! tag:unity3d.com,2011:
--- !u!74 &7400000
AnimationClip:
  m_ObjectHideFlags: 0
  m_CorrespondingSourceObject: {fileID: 0}
  m_PrefabInstance: {fileID: 0}
  m_PrefabAsset: {fileID: 0}
  m_Name: PlayerDie
  serializedVersion: 6
  m_Legacy: 0
  m_Compressed: 0
  m_UseHighQualityCurve: 1
  m_RotationCurves: []
  m_CompressedRotationCurves: []
  m_EulerCurves: []
  m_PositionCurves: []
  m_ScaleCurves: []
  m_FloatCurves: []
  m_PPtrCurves:
  - curve:
    - time: 0
      value: {fileID: 21300000, guid: 113ffcb4666fbe64cb8d1931254c6018, type: 3}
    - time: 0.083333336
      value: {fileID: 21300000, guid: b2f3c384e09c542408178c5168f8c24b, type: 3}
    - time: 0.16666667
      value: {fileID: 21300000, guid: a68729781ccba3148990ad4da4809082, type: 3}
    - time: 0.25
      value: {fileID: 21300000, guid: c7acadf6d48360d4191d1b10166521e5, type: 3}
    - time: 0.33333334
      value: {fileID: 21300000, guid: 131fefc4e50a2fb4eacb4d97554cee49, type: 3}
    - time: 0.41666666
      value: {fileID: 21300000, guid: 18f3786477bf0554da04d618a7ce9269, type: 3}
    - time: 0.5
      value: {fileID: 21300000, guid: f146508686ac461498367d2651f27806, type: 3}
    - time: 0.5833333
      value: {fileID: 21300000, guid: 4d3b16a35156bd44f8f7d505ed471abb, type: 3}
    - time: 0.6666667
      value: {fileID: 21300000, guid: 733938b15c8f1ca4cbc65a29369da997, type: 3}
    attribute: m_Sprite
    path: 
    classID: 212
    script: {fileID: 0}
  m_SampleRate: 12
  m_WrapMode: 0
  m_Bounds:
    m_Center: {x: 0, y: 0, z: 0}
    m_Extent: {x: 0, y: 0, z: 0}
  m_ClipBindingConstant:
    genericBindings:
    - serializedVersion: 2
      path: 0
      attribute: 0
      script: {fileID: 0}
      typeID: 212
      customType: 23
      isPPtrCurve: 1
    pptrCurveMapping:
    - {fileID: 21300000, guid: 113ffcb4666fbe64cb8d1931254c6018, type: 3}
    - {fileID: 21300000, guid: b2f3c384e09c542408178c5168f8c24b, type: 3}
    - {fileID: 21300000, guid: a68729781ccba3148990ad4da4809082, type: 3}
    - {fileID: 21300000, guid: c7acadf6d48360d4191d1b10166521e5, type: 3}
    - {fileID: 21300000, guid: 131fefc4e50a2fb4eacb4d97554cee49, type: 3}
    - {fileID: 21300000, guid: 18f3786477bf0554da04d618a7ce9269, type: 3}
    - {fileID: 21300000, guid: f146508686ac461498367d2651f27806, type: 3}
    - {fileID: 21300000, guid: 4d3b16a35156bd44f8f7d505ed471abb, type: 3}
    - {fileID: 21300000, guid: 733938b15c8f1ca4cbc65a29369da997, type: 3}
  m_AnimationClipSettings:
    serializedVersion: 2
    m_AdditiveReferencePoseClip: {fileID: 0}
    m_AdditiveReferencePoseTime: 0
    m_StartTime: 0
    m_StopTime: 0.75
    m_OrientationOffsetY: 0
    m_Level: 0
    m_CycleOffset: 0
    m_HasAdditiveReferencePose: 0
    m_LoopTime: 1
    m_LoopBlend: 0
    m_LoopBlendOrientation: 0
    m_LoopBlendPositionY: 0
    m_LoopBlendPositionXZ: 0
    m_KeepOriginalOrientation: 0
    m_KeepOriginalPositionY: 1
    m_KeepOriginalPositionXZ: 0
    m_HeightFromFeet: 0
    m_Mirror: 0
  m_EditorCurves: []
  m_EulerEditorCurves: []
  m_HasGenericRootTransform: 0
  m_HasMotionFloatCurves: 0
  m_Events: []
