%YAML 1.1
%TAG !u! tag:unity3d.com,2011:
--- !u!114 &11400000
MonoBehaviour:
  m_ObjectHideFlags: 0
  m_CorrespondingSourceObject: {fileID: 0}
  m_PrefabInstance: {fileID: 0}
  m_PrefabAsset: {fileID: 0}
  m_GameObject: {fileID: 0}
  m_Enabled: 1
  m_EditorHideFlags: 0
  m_Script: {fileID: 11500000, guid: 2bc79438cc492e34e83a72aff982742e, type: 3}
  m_Name: Enemy2_DodgeStateData
  m_EditorClassIdentifier: 
  dodgeSpeed: 15
  dodgeTime: 0.2
  dodgeCooldown: 2
  dodgeAngle: {x: 1, y: 1}
