%YAML 1.1
%TAG !u! tag:unity3d.com,2011:
--- !u!114 &11400000
MonoBehaviour:
  m_ObjectHideFlags: 0
  m_CorrespondingSourceObject: {fileID: 0}
  m_PrefabInstance: {fileID: 0}
  m_PrefabAsset: {fileID: 0}
  m_GameObject: {fileID: 0}
  m_Enabled: 1
  m_EditorHideFlags: 0
  m_Script: {fileID: 11500000, guid: beebbf6140b43ff4ea9c467feae46a2e, type: 3}
  m_Name: Enemy2_StunStateData
  m_EditorClassIdentifier: 
  stunTime: 3
  stunKnockBackTime: 0.2
  stunKnockBackSpeed: 8
  stunKnockBackAngle: {x: 1, y: 1}
